{
  "request": "POST /emailSES/createEmailTemplate",
  "body": {
    "TemplateName": "Nombre del Template",
    "HtmlPart": "<h1>  codigo HTML </h1> <p>Bienvenido {{nombre}}</p>",
    "SubjectPart": "Bienvenido y gracias",
    "TextPart": "Bienvenido(a) {{nombre}}"
  }
}